NP Trends Survey Data Preparation Guide - 4 Geocoding Addresses
…
postmastr_citystate_id <- postmastr::pm_identify(survey_addr_citystate, var = "Addr_CityState")
postmastr_citystate_prep <- postmastr::pm_prep(postmastr_citystate_id, var = "Addr_CityState", type = "state")

Our postmastr object now returns FALSE when asked if all states in the Addr_CityState column are valid.

We next examine the rows without a valid state.

pm_state_none(postmastr_citystate_prep)

# A tibble: 291 × 2
   pm.uid pm.address    
    <int> <chr>         
 1      1 Indianapolis  
 2      2 Willowbrook   
 3      6 Lincoln       
 4      8 Lodi          
 5     10 Largo Fl      
 6     11 Jeffersonville
 7     12 Atlanta       
 8     14 Norfolk       
 9     15 OSSINING      
10     20 Miami         
# ℹ 281 more rows
…
statedict <- postmastr::pm_dictionary(type = "state", append = states_append)

pm_state_none(postmastr_citystate_prep, dictionary = statedict)

# A tibble: 278 × 2
   pm.uid pm.address    
    <int> <chr>         
 1      1 Indianapolis  
 2      2 Willowbrook   
 3      6 Lincoln       
 4      8 Lodi          
 5     11 Jeffersonville
 6     12 Atlanta       
 7     14 Norfolk       
 8     15 OSSINING      
 9     20 Miami         
10     22 Portland      
# ℹ 268 more rows
4.1.2.2 Parsing State Data

Once processing is complete, we can parse States from the Addr_CityState column.

postmastr_state_parsed <- postmastr::pm_state_parse(postmastr_citystate_prep,
                                                    dictionary = statedict)

Warning: There was 1 warning in `dplyr::mutate()`.
ℹ In argument: `pm.address = ifelse(...)`.
Caused by warning in `stri_sub()`:
! argument is not an atomic vector; coercing

postmastr_state_parsed

# A tibble: 642 × 3
   pm.uid pm.address   pm.state
    <int> <chr>        <chr>   
 1      1 Indianapolis <NA>    
 2      2 Willowbrook  <NA>    
 3      3 Springfield  MA      
 4      4 Chicago      IL      
 5      5 Selinsgrove  PA      
 6      6 Lincoln      <NA>    
 7      7 Dayton       OH      
 8      8 Lodi         <NA>    
 9      9 Harrison     ME      
10     10 Largo        FL      
# ℹ 632 more rows

4.1.2.3 Processing City Data

We repeat the same process for city data. We include a filter for the states identified after parsing with Postmastr.

states <- unique(postmastr_state_parsed$pm.state)[!is.na(unique(postmastr_state_parsed$pm.state))]

citydict <- postmastr::pm_dictionary(type = "city", filter = states)

pm_city_none(postmastr_state_parsed, dictionary = citydict)

# A tibble: 50 × 3
   pm.uid pm.address     pm.state
    <int> <chr>          <chr>   
 1      1 Indianapolis   <NA>    
 2      5 Selinsgrove    PA      
 3     25 St Louis       MO      
 4     32 Westbrookville <NA>    
 5     55 Honolulu       <NA>    
 6     75 Dillsburg      <NA>    
 7     89 AHMEDABAD      <NA>    
 8     96 Carrolltown    <NA>    
 9    120 Chestnut Hill  MA      
10    128 Newfoundland   PA      
# ℹ 40 more rows
…
Warning: There was 1 warning in `dplyr::mutate()`.
ℹ In argument: `pm.address = ifelse(...)`.
Caused by warning in `stri_sub()`:
! argument is not an atomic vector; coercing

4.1.3.4 Parse Street Names

The final element for parsing is the street names themselves.

postmaster_street_parsed <- postmastr::pm_street_parse(postmastr_streetSuf_parsed,
                                                       ordinal = TRUE,
                                                       drop = TRUE)
postmaster_street_parsed

# A tibble: 756 × 6
   pm.uid pm.house pm.preDir pm.street              pm.streetSuf pm.sufDir
    <int> <chr>    <chr>     <chr>                  <chr>        <chr>    
 1      1 6130     N         Michigan               Rd           <NA>     
 2      2 6141     <NA>      Bentley                Ave          <NA>     
 3      3 38       <NA>      Oxford                 St           <NA>     
 4      4 2545     W         Diversey Ave Suite 225 <NA>         <NA>     
 5      5 429      <NA>      8th                    St           <NA>     
 6      6 912      N         70th                   St           <NA>     
 7      7 409      <NA>      Troy                   St           <NA>     
 8      8 275      <NA>      Poplar                 St           <NA>     
 9      9 156      <NA>      Deertrees              Rd           <NA>     
10     10 12552    <NA>      Belcher                Rd           S        
# ℹ 746 more rows
…
4.2 Geocoding

4.2.1 Passing Parsed Addresses to Geocoder

This parsed data set can be submitted to the geocoder of choice. In this case, the survey was processed using the Urban Institue’s Internal Geocoder.

4.2.2 Reading Geocoder Outputs

The outputs from the geocoding process are presented below.

# A tibble: 766 × 61
   row.id f_address  Match_addr Longitude Latitude Addr_type Score Status Region
    <dbl> <chr>      <chr>          <dbl>    <dbl> <chr>     <dbl> <chr>  <chr> 
 1      2 6130 N Mi… 6130 N Mi…     -86.2     39.9 StreetAd…   100 M      India…
 2      3 6141 Bent… 6141 Bent…     -88.0     41.8 PointAdd…   100 M      Illin…
 3      4 38 Oxford… 38 Oxford…     -72.6     42.1 PointAdd…   100 M      Massa…
 4      5 2545 W Di… 2545 W Di…     -87.7     41.9 Subaddre…   100 M      Illin…
 5      6 429 8th S… 429 8th S…     -76.9     40.8 PointAdd…   100 M      Penns…
 6      7 912 N 70t… 912 N 70t…     -96.6     40.8 StreetAd…   100 M      Nebra…
 7      8 409 Troy … 409 Troy …     -84.2     39.8 PointAdd…   100 M      Ohio  
 8      9 275 Popla… 275 Popla…    -121.      38.1 StreetAd…   100 M      Calif…
 9     10 156 Deert… 156 Deert…     -70.7     44.1 PointAdd…   100 M      Maine 
10     11 12552 Bel… 12552 Bel…     -82.7     27.9 PointAdd…   100 M      Flori…
# ℹ 756 more rows
# ℹ 52 more variables: RegionAbbr <chr>, Subregion <chr>, MetroArea <chr>,
#   City <chr>, Nbrhd <chr>, geometry <chr>, Match_type <chr>, LongLabel <chr>,
#   ShortLabel <chr>, Type <chr>, PlaceName <chr>, Place_addr <chr>,
#   Phone <chr>, URL <lgl>, Rank <dbl>, AddBldg <lgl>, AddNum <chr>,
#   AddNumFrom <dbl>, AddNumTo <dbl>, AddRange <chr>, Side <chr>,
#   StPreDir <chr>, StPreType <chr>, StName <chr>, StType <chr>, StDir <chr>, …
…
