NP Trends Survey Data Preparation Guide - 3 Cleaning the Survey Data
…
response_rate_df <- response_rate_df %>% 
  dplyr::filter(! ResponseId %in% weighted_survey_df$ResponseId)

response_rate_df

# A tibble: 183 × 20
# Rowwise: 
   ResponseId        `Program Changes` `People Served` `Next Year's Demand`
   <chr>                         <dbl>           <dbl>                <dbl>
 1 R_DBssU8ZTwzTt6fv             0                 0                      0
 2 R_1QuasfhC2xVekO5             1                 0                      1
 3 R_xootO5lmtrk9iql             1                 0.5                    1
 4 R_1i5piK9O2KSz2cy             1                 1                      1
 5 R_Zk0b5kkV4ZsVcyZ             0                 0                      0
 6 R_1F8S9zoHyr3nk9h             1                 0.5                    1
 7 R_2QQx6rnvnByBhOq             1                 1                      1
 8 R_DuBxviq5RvnXT4R             1                 1                      1
 9 R_3qyVU1CNMZ5T7Vj             0.929             1                      1
10 R_1I4pvb6fK7OZynb             1                 0.5                    1
# ℹ 173 more rows
# ℹ 16 more variables: `Staff & Volunteers` <dbl>,
#   `Volunteer Importance` <dbl>, `Donor Importance` <dbl>, Fundraising <dbl>,
#   `Major Gift Amount` <dbl>, `Fundraising Changes` <dbl>,
#   `Donor Changes` <dbl>, `Fundraising Sought/Received` <dbl>,
#   `Revenue Breakdown` <dbl>, Reserves <dbl>, `CARES Funding` <dbl>,
#   `Finance Changes` <dbl>, `Leadership Changes` <dbl>, …
…
