NP Trends Survey Data Preparation Guide - 3 Cleaning the Survey Data
…
  # Now:
  data %>% select(all_of(idx))

See <https://tidyselect.r-lib.org/reference/faq-external-vector.html>.

response_rate_df <- purrr::reduce(response_rate_ls,
                                  dplyr::left_join,
                                  by = "ResponseId")

response_rate_df

# A tibble: 822 × 5
# Rowwise: 
   ResponseId        `Program Changes` `People Served` `Next Year's Demand`
   <chr>                         <dbl>           <dbl>                <dbl>
 1 R_DBssU8ZTwzTt6fv             0                0                       0
 2 R_2vep2kcH5faaRfq             0.929            0.25                    1
 3 R_3patU2q66WGVXR7             1                0.5                     1
 4 R_2pLhSFexPgR94Vd             1                0.5                     1
 5 R_0rqd4nIAaRTIy09             1                0.5                     1
 6 R_2zeiTwRN7SVvea4             1                0.5                     1
 7 R_2qeinqbsdHrMuJV             1                0.5                     1
 8 R_QchjEULlW7hqJ1L             1                0.5                     1
 9 R_27WOdaj2m7TjbwW             1                0.5                     1
10 R_3CIqeUmES6p758U             1                0.5                     1
# ℹ 812 more rows
# ℹ 1 more variable: `Staff & Volunteers` <dbl>
