Geocoding Addresses
…
postmastr_citystate_id <- postmastr::pm_identify(survey_addr_citystate, var = "Addr_CityState")
postmastr_citystate_prep <- postmastr::pm_prep(postmastr_citystate_id, var = "Addr_CityState", type = "state")

Our postmastr object now returns FALSE when asked if all states in the Addr_CityState column are valid.

We next examine the rows without a valid state.

pm_state_none(postmastr_citystate_prep)

# A tibble: 291 × 2
   pm.uid pm.address    
    <int> <chr>         
 1      1 Indianapolis  
 2      2 Willowbrook   
 3      6 Lincoln       
 4      8 Lodi          
 5     10 Largo Fl      
 6     11 Jeffersonville
 7     12 Atlanta       
 8     14 Norfolk       
 9     15 OSSINING      
10     20 Miami         
# ℹ 281 more rows
…
statedict <- postmastr::pm_dictionary(type = "state", append = states_append)

pm_state_none(postmastr_citystate_prep, dictionary = statedict)

# A tibble: 278 × 2
   pm.uid pm.address    
    <int> <chr>         
 1      1 Indianapolis  
 2      2 Willowbrook   
 3      6 Lincoln       
 4      8 Lodi          
 5     11 Jeffersonville
 6     12 Atlanta       
 7     14 Norfolk       
 8     15 OSSINING      
 9     20 Miami         
10     22 Portland      
# ℹ 268 more rows
Parsing State Data

Once processing is complete, we can parse States from the Addr_CityState column.

postmastr_state_parsed <- postmastr::pm_state_parse(postmastr_citystate_prep,
                                                    dictionary = statedict)

Warning: There was 1 warning in `dplyr::mutate()`.
ℹ In argument: `pm.address = ifelse(...)`.
Caused by warning in `stri_sub()`:
! argument is not an atomic vector; coercing

postmastr_state_parsed

# A tibble: 642 × 3
   pm.uid pm.address   pm.state
    <int> <chr>        <chr>   
 1      1 Indianapolis <NA>    
 2      2 Willowbrook  <NA>    
 3      3 Springfield  MA      
 4      4 Chicago      IL      
 5      5 Selinsgrove  PA      
 6      6 Lincoln      <NA>    
 7      7 Dayton       OH      
 8      8 Lodi         <NA>    
 9      9 Harrison     ME      
10     10 Largo        FL      
# ℹ 632 more rows

Processing City Data

We repeat the same process for city data. We include a filter for the states identified after parsing with Postmastr.

states <- unique(postmastr_state_parsed$pm.state)[!is.na(unique(postmastr_state_parsed$pm.state))]

citydict <- postmastr::pm_dictionary(type = "city", filter = states)

pm_city_none(postmastr_state_parsed, dictionary = citydict)

# A tibble: 50 × 3
   pm.uid pm.address     pm.state
    <int> <chr>          <chr>   
 1      1 Indianapolis   <NA>    
 2      5 Selinsgrove    PA      
 3     25 St Louis       MO      
 4     32 Westbrookville <NA>    
 5     55 Honolulu       <NA>    
 6     75 Dillsburg      <NA>    
 7     89 AHMEDABAD      <NA>    
 8     96 Carrolltown    <NA>    
 9    120 Chestnut Hill  MA      
10    128 Newfoundland   PA      
# ℹ 40 more rows
…
Prepare Data

The final column to process is Addr_StreetLocation which contains street names.

survey_addr_street <- survey_recode_df %>% 
  dplyr::select(EIN, Addr_StreetLocation) %>% 
  dplyr::filter(! Addr_StreetLocation %in% c("-99", NA))

postmastr_street_id <- postmastr::pm_identify(survey_addr_street, var = "Addr_StreetLocation")
postmastr_street_prep <- postmastr::pm_prep(postmastr_street_id, var = "Addr_StreetLocation", type = "street")

postmastr_street_prep

# A tibble: 758 × 2
   pm.uid pm.address                   
    <int> <chr>                        
 1      1 6130 N Michigan Rd           
 2      2 6141 Bentley Ave             
 3      3 38 Oxford Street             
 4      4 2545 W Diversey Ave Suite 225
 5      5 429 Eighth Street            
 6      6 912 N. 70th Street           
 7      7 409 Troy St                  
 8      8 275 Poplar Street            
 9      9 156 Deertrees Rd             
10     10 12552 Belcher Rd S           
# ℹ 748 more rows

Parse House Numbers

postmastr_house_parsed <- postmastr::pm_house_parse(postmastr_street_prep)
postmastr_house_parsed

# A tibble: 758 × 3
   pm.uid pm.address               pm.house
    <int> <chr>                    <chr>   
 1      1 N Michigan Rd            6130    
 2      2 Bentley Ave              6141    
 3      3 Oxford Street            38      
 4      4 W Diversey Ave Suite 225 2545    
 5      5 Eighth Street            429     
 6      6 N. 70th Street           912     
 7      7 Troy St                  409     
 8      8 Poplar Street            275     
 9      9 Deertrees Rd             156     
10     10 Belcher Rd S             12552   
# ℹ 748 more rows
…
Warning: There was 1 warning in `dplyr::mutate()`.
ℹ In argument: `pm.address = ifelse(...)`.
Caused by warning in `stri_sub()`:
! argument is not an atomic vector; coercing

Parse Street Names

postmaster_street_parsed <- postmastr::pm_street_parse(postmastr_streetSuf_parsed,
                                                       ordinal = TRUE,
                                                       drop = TRUE)
postmaster_street_parsed

# A tibble: 756 × 6
   pm.uid pm.house pm.preDir pm.street              pm.streetSuf pm.sufDir
    <int> <chr>    <chr>     <chr>                  <chr>        <chr>    
 1      1 6130     N         Michigan               Rd           <NA>     
 2      2 6141     <NA>      Bentley                Ave          <NA>     
 3      3 38       <NA>      Oxford                 St           <NA>     
 4      4 2545     W         Diversey Ave Suite 225 <NA>         <NA>     
 5      5 429      <NA>      8th                    St           <NA>     
 6      6 912      N         70th                   St           <NA>     
 7      7 409      <NA>      Troy                   St           <NA>     
 8      8 275      <NA>      Poplar                 St           <NA>     
 9      9 156      <NA>      Deertrees              Rd           <NA>     
10     10 12552    <NA>      Belcher                Rd           S        
# ℹ 746 more rows
…
