NP Trends Survey Data Preparation Guide - 12 Address Validation
…
postmastr_citystate_prep <- 
  postmastr::pm_prep( postmastr_citystate_id, 
                      var = "Addr_CityState", 
                      type = "state")

Our postmastr object now returns FALSE when asked if all states in the Addr_CityState column are valid.

We next examine the rows without a valid state.

pm_state_none(postmastr_citystate_prep)

# A tibble: 253 × 2
   pm.uid pm.address     
    <int> <chr>          
 1      2 Winthrop       
 2      6 Aurora         
 3     11 Jackson Heights
 4     19 OSSINING       
 5     21 Monticello     
 6     22 San Diego      
 7     23 NEW HARTFORD   
 8     25 Earlville      
 9     27 Rochester      
10     28 Niagara Falls  
# ℹ 243 more rows
…
statedict <- 
  postmastr::pm_dictionary( type = "state", append = states_append )

pm_state_none( postmastr_citystate_prep, dictionary = statedict )

# A tibble: 242 × 2
   pm.uid pm.address     
    <int> <chr>          
 1      2 Winthrop       
 2      6 Aurora         
 3     11 Jackson Heights
 4     19 OSSINING       
 5     21 Monticello     
 6     22 San Diego      
 7     23 NEW HARTFORD   
 8     25 Earlville      
 9     27 Rochester      
10     28 Niagara Falls  
# ℹ 232 more rows

12.1.2.2 Parsing State Data

Once processing is complete, we can parse States from the Addr_CityState column.

postmastr_state_parsed <- 
  postmastr::pm_state_parse( postmastr_citystate_prep,
                             dictionary = statedict )
postmastr_state_parsed

# A tibble: 567 × 3
   pm.uid pm.address   pm.state
    <int> <chr>        <chr>   
 1      1 WINTHROP     ME      
 2      2 Winthrop     <NA>    
 3      3 Westbrook    ME      
 4      4 Port Angeles WA      
 5      5 Portland     ME      
 6      6 Aurora       <NA>    
 7      7 Bethpage     NY      
 8      8 Brooklyn     NY      
 9      9 Hauppauge    NY      
10     10 Media        PA      
# ℹ 557 more rows

12.1.2.3 Processing City Data

We repeat the same process for city data. We include a filter for the states identified after parsing with Postmastr.

states <- 
  unique( postmastr_state_parsed$pm.state ) %>%
  na.omit()

citydict <- postmastr::pm_dictionary( type = "city", filter = states )

pm_city_none( postmastr_state_parsed, dictionary = citydict )

# A tibble: 46 × 3
   pm.uid pm.address         pm.state
    <int> <chr>              <chr>   
 1     56 Saint Clair Shores <NA>    
 2     57 St Louis           MO      
 3     68 Westbrookville     <NA>    
 4     72 Wernersville       PA      
 5     73 Newfoundland       PA      
 6     77 Dillsburg          <NA>    
 7     84 Lititz             PA      
 8     92 Indianapolis       IN      
 9    100 Pacoima            <NA>    
10    108 Sonoma cA          <NA>    
# ℹ 36 more rows
…
postmastr_streetSuf_parsed <- 
  postmastr::pm_streetSuf_parse( postmastr_streetdir_parsed )

12.1.3.4 Parse Street Names

The final element for parsing is the street names themselves.

postmaster_street_parsed <- 
  postmastr::pm_street_parse( postmastr_streetSuf_parsed,
                              ordinal = TRUE,
                              drop = TRUE)
postmaster_street_parsed

# A tibble: 665 × 6
   pm.uid pm.house pm.preDir pm.street                    pm.streetSuf pm.sufDir
    <int> <chr>    <chr>     <chr>                        <chr>        <chr>    
 1      1 305      <NA>      Winthrop Center              Rd           <NA>     
 2      2 188      <NA>      Case                         Rd           <NA>     
 3      3 15       <NA>      Saunders Way #500d           <NA>         <NA>     
 4      4 819      <NA>      Georgiana St                 <NA>         <NA>     
 5      5 <NA>     <NA>      Po. Box 761                  <NA>         <NA>     
 6      6 712      S         River St Ste H               <NA>         <NA>     
 7      7 15       <NA>      Grumman Road West Suite 1000 <NA>         <NA>     
 8      8 1000     <NA>      Dean Street Suite 420        <NA>         <NA>     
 9      9 10       <NA>      Davids                       Dr           <NA>     
10     10 144      <NA>      Longview                     Cir          <NA>     
# ℹ 655 more rows
…
